org/escoladeltreball/dao/UsersDAO.class
org/escoladeltreball/model/json/ListUsers.class
org/escoladeltreball/dao/MockDAO.class
org/escoladeltreball/test/TestClient$9.class
org/escoladeltreball/test/TestClient$14.class
org/escoladeltreball/model/persistence/FriendRequest.class
org/escoladeltreball/test/TestClient$10.class
org/escoladeltreball/test/TestClient$2.class
org/escoladeltreball/model/json/StatusPackage.class
org/escoladeltreball/test/TestConfig$Validation.class
org/escoladeltreball/dao/CustomDAOSupport.class
org/escoladeltreball/test/TestClient$17.class
org/escoladeltreball/servlet/SocketServlet.class
org/escoladeltreball/test/TestClient$18.class
org/escoladeltreball/model/persistence/Canciones.class
org/escoladeltreball/exception/ValidationException.class
org/escoladeltreball/support/SerializableJson.class
org/escoladeltreball/servlet/HttpServlet.class
org/escoladeltreball/test/TestClient$11.class
org/escoladeltreball/test/TestClient.class
org/escoladeltreball/model/json/ListFavorites.class
org/escoladeltreball/test/TestConfig$HttpActions.class
org/escoladeltreball/manager/Manager.class
org/escoladeltreball/test/TestConfig.class
org/escoladeltreball/dao/FriendRequestDAO.class
org/escoladeltreball/test/TestClient$3.class
org/escoladeltreball/dao/FavoritesDAO.class
org/escoladeltreball/dao/SongsDAO.class
org/escoladeltreball/test/TestClient$6.class
org/escoladeltreball/config/Config$HttpArgs.class
org/escoladeltreball/test/TestConfig$Connection.class
org/escoladeltreball/config/Config.class
org/escoladeltreball/test/TestClient$19.class
org/escoladeltreball/test/TestClient$4.class
org/escoladeltreball/test/TestConfig$HttpArgs.class
org/escoladeltreball/model/persistence/Sincronizable.class
org/escoladeltreball/test/TestClient$15.class
org/escoladeltreball/model/json/ListSongs.class
org/escoladeltreball/model/persistence/Favorites.class
org/escoladeltreball/model/json/ListCountriesCities.class
org/escoladeltreball/test/UtilsHttp.class
org/escoladeltreball/model/persistence/Users.class
org/escoladeltreball/support/JsonConverter.class
org/escoladeltreball/test/TestClient$7.class
org/escoladeltreball/model/json/FavoriteAndSongs.class
org/escoladeltreball/support/ImageConverter.class
org/escoladeltreball/config/Config$HttpActions.class
org/escoladeltreball/test/TestClient$12.class
org/escoladeltreball/test/TestClient$5.class
org/escoladeltreball/support/Utils.class
org/escoladeltreball/test/TestClient$13.class
org/escoladeltreball/test/TestClient$8.class
org/escoladeltreball/test/TestClient$1.class
org/escoladeltreball/test/TestClient$16.class
org/escoladeltreball/model/json/ListFriendRequest.class
org/escoladeltreball/model/json/ListFriendRequest$RequestModel.class
